/*--------UNIFG--------
Estrutura de dados - N1
CCO
3 Período
Turno: Manhã
Grupo: Cristian Matheus Galindo de Brito (202002728)
       Paulo Emanuel Madeira de Freitas (202003566)
       Paulo Montenegro Campos (202000095)
*/